Vignette Title
…
Let’s get summary statistics

get_summary_stats(variables.of.int, type = "common")
#> # A tibble: 25 × 10
#>    variable         n   min   max median   iqr   mean     sd    se    ci
#>    <fct>        <dbl> <dbl> <dbl>  <dbl> <dbl>  <dbl>  <dbl> <dbl> <dbl>
#>  1 IAC           1776   0     1      1     1    0.554  0.497 0.012 0.023
#>  2 death         1776   0     1      0     0    0.159  0.366 0.009 0.017
#>  3 age           1776  15.2  99.1   53.7  34.5 54.4   21.1   0.5   0.98 
#>  4 sex           1775   0     1      1     1    0.577  0.494 0.012 0.023
#>  5 sofa          1770   0    17      6     3    5.82   2.34  0.055 0.109
#>  6 COPD          1776   0     1      0     0    0.088  0.284 0.007 0.013
#>  7 Other.resp.D  1776   0     1      0     1    0.318  0.466 0.011 0.022
#>  8 CHF           1776   0     1      0     0    0.12   0.325 0.008 0.015
#>  9 AF            1776   0     1      0     0    0.117  0.321 0.008 0.015
#> 10 chr.renal.D   1776   0     1      0     0    0.034  0.181 0.004 0.008
#> # ℹ 15 more rows
…
